mult_4_ASIC_Flow/sim/simulation/mult_4_TB.vcd
$date
	Sun Dec  7 13:15:01 2025
$end
$version
	Icarus Verilog
$end
$timescale
	1ps
$end
$scope module mult_4_TB $end
$scope module uut $end
$var wire 4 ! A [3:0] $end
$var wire 4 " B [3:0] $end
$var wire 1 # clk $end
$var wire 1 $ init $end
$var wire 1 % rst $end
$var wire 1 & w_z $end
$var wire 1 ' w_sh $end
$var wire 1 ( w_reset $end
$var wire 1 ) w_add $end
$var wire 8 * w_B [7:0] $end
$var wire 8 + w_A [7:0] $end
$var wire 8 , pp [7:0] $end
$var wire 1 - done $end
$scope module acc0 $end
$var wire 1 # clk $end
$var wire 1 ( rst $end
$var wire 1 ) add $end
$var wire 8 . A [7:0] $end
$var reg 8 / pp [7:0] $end
$upscope $end
$scope module comp0 $end
$var wire 1 & z $end
$var wire 8 0 B [7:0] $end
$var reg 1 1 tmp $end
$upscope $end
$scope module control0 $end
$var wire 1 # clk $end
$var wire 1 $ init $end
$var wire 1 2 lsb_B $end
$var wire 1 % rst $end
$var wire 1 & z $end
$var parameter 3 3 ADD $end
$var parameter 3 4 CHECK $end
$var parameter 3 5 END $end
$var parameter 3 6 SHIFT $end
$var parameter 3 7 START $end
$var reg 1 ) add $end
$var reg 4 8 count [3:0] $end
$var reg 1 - done $end
$var reg 1 ( reset $end
$var reg 1 ' sh $end
$var reg 3 9 state [2:0] $end
$upscope $end
$scope module lsr0 $end
$var wire 1 # clk $end
$var wire 4 : in_A [3:0] $end
$var wire 1 ( load $end
$var wire 1 ' shift $end
$var reg 8 ; s_A [7:0] $end
$upscope $end
$scope module rsr0 $end
$var wire 1 # clk $end
$var wire 4 < in_B [3:0] $end
$var wire 1 ( load $end
$var wire 1 ' shift $end
$var reg 8 = s_B [7:0] $end
$upscope $end
$upscope $end
$upscope $end
$enddefinitions $end
$comment Show the parameter values. $end
$dumpall
b0 7
b10 6
b100 5
b1 4
b11 3
$end
#0
$dumpvars
bx =
b1101 <
bx ;
b101 :
b0 9
bx 8
x2
01
bx 0
b0 /
bx .
0-
b0 ,
bx +
bx *
0)
0(
0'
0&
1%
0$
0#
b1101 "
b101 !
$end
#10000
1#
#20000
0#
#30000
1#
#40000
0%
0#
#50000
b0 8
1(
1#
#60000
12
b101 +
b101 .
b101 ;
b1101 *
b1101 0
b1101 =
0#
#70000
1$
1#
#80000
0#
#90000
b1 9
1#
#100000
0#
#110000
0$
b11 9
0(
1#
#120000
0#
#130000
b10 9
1)
1#
#140000
b101 ,
b101 /
0#
#150000
b1 9
0)
1'
1#
#160000
02
b110 *
b110 0
b110 =
b1010 +
b1010 .
b1010 ;
0#
#170000
b10 9
0'
1#
#180000
0#
#190000
b1 9
1'
1#
#200000
12
b11 *
b11 0
b11 =
b10100 +
b10100 .
b10100 ;
0#
#210000
b11 9
0'
1#
#220000
0#
#230000
b10 9
1)
1#
#240000
b11001 ,
b11001 /
0#
#250000
b1 9
0)
1'
1#
#260000
b101000 +
b101000 .
b101000 ;
b1 *
b1 0
b1 =
0#
#270000
b11 9
0'
1#
#280000
0#
#290000
b10 9
1)
1#
#300000
b1000001 ,
b1000001 /
0#
#310000
b1 9
0)
1'
1#
#320000
02
1&
11
b0 *
b0 0
b0 =
b1010000 +
b1010000 .
b1010000 ;
0#
#330000
b10 9
0'
1#
#340000
0#
#350000
b100 9
1'
1#
#360000
b10100000 +
b10100000 .
b10100000 ;
0#
#370000
b1 8
0'
1-
1#
#380000
0#
#390000
b10 8
1#
#400000
0#
#410000
b11 8
1#
#420000
0#
#430000
b100 8
1#
#440000
0#
#450000
b101 8
1#
#460000
0#
#470000
b110 8
1#
#480000
0#
#490000
b111 8
1#
#500000
0#
#510000
b1000 8
1#
#520000
0#
#530000
b1001 8
1#
#540000
0#
#550000
b0 9
b1010 8
1#
#560000
0#
#570000
b0 8
1(
0-
1#
#580000
12
0&
01
b0 ,
b0 /
b101 +
b101 .
b101 ;
b1101 *
b1101 0
b1101 =
0#
